2005-05-23 17:14 +0000 [r417436]  cniehaus

	* kalzium/src/kalziumrc: fix the wrong EN of Xenon for 3.4 as well

2005-05-24 09:47 +0000 [r417692]  adrian

	* libkdeedu/extdate/extdatetime.h: fix compile with current gcc4

2005-06-27 15:18 +0000 [r429401]  binner

	* kdeedu.lsm: 3.4.2 preparations

