{
    "teaserOptions":
    {
        "fx": "fade",
        "timeout": 6000,
        "speed": 500
    },

    "teaserImages":
    {
        "jointhegame.png":
        {
            "href": "https://kde.org/community/donations/",
            "alt": "Join the Game"
        },
        "KDEDevelbook.png":
        {
            "href": "http://books.kde.org/",
            "alt": "KDE Books"
        }
    }
}
