------------------------------------------------------------------------
r1222924 | scripty | 2011-02-28 02:16:58 +1300 (Mon, 28 Feb 2011) | 1 line

SVN_SILENT made messages (.desktop file)
------------------------------------------------------------------------
r1223215 | sitter | 2011-03-02 00:11:06 +1300 (Wed, 02 Mar 2011) | 2 lines

backporting r1223214

------------------------------------------------------------------------
r1224400 | scripty | 2011-03-11 02:31:45 +1300 (Fri, 11 Mar 2011) | 1 line

SVN_SILENT made messages (.desktop file)
------------------------------------------------------------------------
r1224426 | esken | 2011-03-11 09:51:05 +1300 (Fri, 11 Mar 2011) | 1 line

Fix "KMix window empty" after doing multiple Backend changes. [Backport to branch 4.6]
------------------------------------------------------------------------
r1225557 | scripty | 2011-03-22 02:47:17 +1300 (Tue, 22 Mar 2011) | 1 line

SVN_SILENT made messages (.desktop file)
------------------------------------------------------------------------
