------------------------------------------------------------------------
r945289 | scripty | 2009-03-27 08:22:19 +0000 (Fri, 27 Mar 2009) | 1 line

SVN_SILENT made messages (.desktop file)
------------------------------------------------------------------------
r945509 | bettio | 2009-03-27 15:10:01 +0000 (Fri, 27 Mar 2009) | 2 lines

Removed hardcoded color.

------------------------------------------------------------------------
r945512 | bettio | 2009-03-27 15:14:14 +0000 (Fri, 27 Mar 2009) | 2 lines

Eyes don't need a configuration interface.

------------------------------------------------------------------------
r946724 | scripty | 2009-03-30 07:10:11 +0000 (Mon, 30 Mar 2009) | 1 line

SVN_SILENT made messages (.desktop file)
------------------------------------------------------------------------
r951771 | scripty | 2009-04-10 07:27:41 +0000 (Fri, 10 Apr 2009) | 1 line

SVN_SILENT made messages (.desktop file)
------------------------------------------------------------------------
r956970 | scripty | 2009-04-21 07:23:50 +0000 (Tue, 21 Apr 2009) | 1 line

SVN_SILENT made messages (.desktop file)
------------------------------------------------------------------------
r958410 | aseigo | 2009-04-24 03:44:42 +0000 (Fri, 24 Apr 2009) | 2 lines

backport proper dot location

------------------------------------------------------------------------
r959364 | scripty | 2009-04-26 07:18:02 +0000 (Sun, 26 Apr 2009) | 1 line

SVN_SILENT made messages (.desktop file)
------------------------------------------------------------------------
