------------------------------------------------------------------------
r971528 | gokcen | 2009-05-22 15:55:09 +0000 (Fri, 22 May 2009) | 1 line

Remove -DQT_NO_DEBUG, developer should decide this by setting -DCMAKE_BULD_TYPE.
------------------------------------------------------------------------
