------------------------------------------------------------------------
r879828 | scripty | 2008-11-04 07:35:51 +0000 (Tue, 04 Nov 2008) | 1 line

SVN_SILENT made messages (.desktop file)
------------------------------------------------------------------------
r892744 | scripty | 2008-12-05 07:39:30 +0000 (Fri, 05 Dec 2008) | 1 line

SVN_SILENT made messages (.desktop file)
------------------------------------------------------------------------
