------------------------------------------------------------------------
r1168076 | scripty | 2010-08-26 03:37:54 +0100 (dj, 26 ago 2010) | 1 line

SVN_SILENT made messages (.desktop file)
------------------------------------------------------------------------
r1166831 | scripty | 2010-08-23 03:34:14 +0100 (dl, 23 ago 2010) | 1 line

SVN_SILENT made messages (.desktop file)
------------------------------------------------------------------------
r1163755 | scripty | 2010-08-15 03:06:18 +0100 (dg, 15 ago 2010) | 1 line

SVN_SILENT made messages (.desktop file)
------------------------------------------------------------------------
