------------------------------------------------------------------------
r1182810 | lueck | 2010-10-06 07:20:08 +1300 (Wed, 06 Oct 2010) | 1 line

documentation backport from trunk for 4.5.3
------------------------------------------------------------------------
r1182987 | lueck | 2010-10-06 21:16:18 +1300 (Wed, 06 Oct 2010) | 1 line

screenshot update
------------------------------------------------------------------------
r1183289 | lueck | 2010-10-07 09:28:30 +1300 (Thu, 07 Oct 2010) | 1 line

doc backport
------------------------------------------------------------------------
